Aliceblue_Project_Prep
…
Relevant columns for data processing include:

Variables: Name of key items. These are separated into sub-categories such as “Food”, “Clothing & Footwear”, “Housing & Utilities”, etc.

Date columns: These represent year-on-year CPI values for each Variable. The columns are named according to the corresponding year and month they represent, such as 2019 Jan, 2020 Jun, etc.

The following code loads the data from Sheet T11 in the CSV file, skipping the first 5 rows and removing any rows with NA values:

# Load full data, select specific sheet (T11), skip first 5 rows and remove rows with NA values
data <- read_excel("cpiapr24.xlsx", sheet = "T11", skip = 5) |>
  filter(if_all(everything(), ~ !is.na(.)))

data

# A tibble: 152 × 749
   Variables   `1962 Jan` `1962 Feb` `1962 Mar` `1962 Apr` `1962 May` `1962 Jun`
   <chr>       <chr>      <chr>      <chr>      <chr>      <chr>      <chr>     
 1 All Items   0.4        0.9        -0.7       0.5        1.1000000… 0.9       
 2 Food        0.5        1.5        -1.2       0.9        1.9        1.4       
 3 Food Excl … na         na         na         na         na         na        
 4 Bread & Ce… na         na         na         na         na         na        
 5 Rice        na         na         na         na         na         na        
 6 Flour       na         na         na         na         na         na        
 7 Bread       na         na         na         na         na         na        
 8 Noodles & … na         na         na         na         na         na        
 9 Biscuits &… na         na         na         na         na         na        
10 Cakes & Pa… na         na         na         na         na         na        
# ℹ 142 more rows
# ℹ 742 more variables: `1962 Jul` <chr>, `1962 Aug` <chr>, `1962 Sep` <chr>,
#   `1962 Oct` <chr>, `1962 Nov` <chr>, `1962 Dec` <chr>, `1963 Jan` <chr>,
#   `1963 Feb` <chr>, `1963 Mar` <chr>, `1963 Apr` <chr>, `1963 May` <chr>,
#   `1963 Jun` <chr>, `1963 Jul` <chr>, `1963 Aug` <chr>, `1963 Sep` <chr>,
#   `1963 Oct` <chr>, `1963 Nov` <chr>, `1963 Dec` <chr>, `1964 Jan` <chr>,
#   `1964 Feb` <chr>, `1964 Mar` <chr>, `1964 Apr` <chr>, `1964 May` <chr>, …
…
all_items_data

# A tibble: 48 × 5
   Variables  Year Month Value Date      
   <chr>     <dbl> <dbl> <dbl> <date>    
 1 All Items  2020     1   0.8 2020-01-01
 2 All Items  2020     2   0.3 2020-02-01
 3 All Items  2020     3   0   2020-03-01
 4 All Items  2020     4  -0.7 2020-04-01
 5 All Items  2020     5  -0.8 2020-05-01
 6 All Items  2020     6  -0.5 2020-06-01
 7 All Items  2020     7  -0.4 2020-07-01
 8 All Items  2020     8  -0.4 2020-08-01
 9 All Items  2020     9   0   2020-09-01
10 All Items  2020    10  -0.2 2020-10-01
# ℹ 38 more rows
…
month_dates <- unique(pivoted_data$Month)
month_dates

 [1]  1  2  3  4  5  6  7  8  9 10 11 12

# month_order <- c("Jan", "Feb", "Mar", "Apr", "May", "Jun", "Jul", "Aug", "Sep", "Oct", "Nov", "Dec")

# Find the average of the other years except 2023
pivoted_data_except_2023 <- pivoted_data |>
  filter(Year != 2023)

pivoted_data_except_2023

# A tibble: 324 × 4
   Variables                      Year Month Value
   <chr>                         <dbl> <dbl> <dbl>
 1 Food                           2020     1   1.7
 2 Clothing & Footwear            2020     1  -3.8
 3 Housing & Utilities            2020     1  -0.4
 4 Household Durables & Services  2020     1   0.4
 5 Health Care                    2020     1  -1.3
 6 Transport                      2020     1   4.2
 7 Communication                  2020     1   0.7
 8 Recreation & Culture           2020     1   0.5
 9 Education                      2020     1  -0.6
10 Food                           2020     2   1.6
# ℹ 314 more rows

average_prices_except_2023 <- pivoted_data_except_2023 |>
  group_by(Variables, Month) |>
  summarize(average_Value = mean(Value)) |>
  arrange(Variables, Month) 

`summarise()` has grouped output by 'Variables'. You can override using the
`.groups` argument.

# average_prices_except_2023$Month <- factor(average_prices_except_2023$Month, levels = month_order)

average_prices_except_2023 |> 
  arrange(Variables, Month)

# A tibble: 108 × 3
# Groups:   Variables [9]
   Variables           Month average_Value
   <chr>               <dbl>         <dbl>
 1 Clothing & Footwear     1        -4.27 
 2 Clothing & Footwear     2        -3.93 
 3 Clothing & Footwear     3        -3.63 
 4 Clothing & Footwear     4        -2.43 
 5 Clothing & Footwear     5        -2.1  
 6 Clothing & Footwear     6        -2.23 
 7 Clothing & Footwear     7        -1    
 8 Clothing & Footwear     8        -0.267
 9 Clothing & Footwear     9        -1.2  
10 Clothing & Footwear    10        -1.43 
# ℹ 98 more rows
…
This code chunk processes the 2023 data by filtering the data to include only the year 2023.

pivoted_data_2023 <- pivoted_data |>
  filter(Year == 2023)

pivoted_data_2023 |> 
  arrange(Variables, Month)

# A tibble: 108 × 4
   Variables            Year Month Value
   <chr>               <dbl> <dbl> <dbl>
 1 Clothing & Footwear  2023     1   6.9
 2 Clothing & Footwear  2023     2   7.1
 3 Clothing & Footwear  2023     3   6.3
 4 Clothing & Footwear  2023     4   5.6
 5 Clothing & Footwear  2023     5   4.1
 6 Clothing & Footwear  2023     6   4  
 7 Clothing & Footwear  2023     7   0.6
 8 Clothing & Footwear  2023     8  -0.5
 9 Clothing & Footwear  2023     9  -1.7
10 Clothing & Footwear  2023    10  -0.1
# ℹ 98 more rows

pivoted_data_2023$Year <- NULL

pivoted_data_2023

# A tibble: 108 × 3
   Variables                     Month Value
   <chr>                         <dbl> <dbl>
 1 Food                              1   8.1
 2 Clothing & Footwear               1   6.9
 3 Housing & Utilities               1   5.4
 4 Household Durables & Services     1   2.8
 5 Health Care                       1   4  
 6 Transport                         1  11.9
 7 Communication                     1   0.6
 8 Recreation & Culture              1   6.7
 9 Education                         1   3  
10 Food                              2   8.1
# ℹ 98 more rows
…
Finally, we combine both the average data from the preceding years (2020 - 2022) and the data from 2023 to create a single dataset for visualization.

combined_data <- inner_join(average_prices_except_2023, pivoted_data_2023, by = c("Variables", "Month")) |>
  rename(Value_Average = average_Value, Value_2023 = Value) 
  
# combined_data$Month <- factor(combined_data$Month, levels = month_order)

combined_data |>
  arrange(Variables, Month)

# A tibble: 108 × 4
# Groups:   Variables [9]
   Variables           Month Value_Average Value_2023
   <chr>               <dbl>         <dbl>      <dbl>
 1 Clothing & Footwear     1        -4.27         6.9
 2 Clothing & Footwear     2        -3.93         7.1
 3 Clothing & Footwear     3        -3.63         6.3
 4 Clothing & Footwear     4        -2.43         5.6
 5 Clothing & Footwear     5        -2.1          4.1
 6 Clothing & Footwear     6        -2.23         4  
 7 Clothing & Footwear     7        -1            0.6
 8 Clothing & Footwear     8        -0.267       -0.5
 9 Clothing & Footwear     9        -1.2         -1.7
10 Clothing & Footwear    10        -1.43        -0.1
# ℹ 98 more rows
…
